%YAML 1.1
%TAG !u! tag:unity3d.com,2011:
--- !u!1045 &1
EditorBuildSettings:
  m_ObjectHideFlags: 0
  serializedVersion: 2
  m_Scenes:
  - enabled: 1
    path: Assets/scenes/start/start.unity
  - enabled: 1
    path: Assets/scenes/main_menu/main_menu.unity
  - enabled: 1
    path: Assets/scenes/ship_select/ship_select.unity
  - enabled: 1
    path: Assets/scenes/in_game/in_game.unity
