%YAML 1.1
%TAG !u! tag:unity3d.com,2011:
--- !u!13 &1
InputManager:
  m_ObjectHideFlags: 0
  serializedVersion: 2
  m_Axes:
  - serializedVersion: 3
    m_Name: Mouse Horizontal
    descriptiveName:
    descriptiveNegativeName:
    negativeButton:
    positiveButton:
    altNegativeButton:
    altPositiveButton:
    gravity: 0
    dead: 0
    sensitivity: 0.1
    snap: 0
    invert: 0
    type: 1
    axis: 0
    joyNum: 0
  - serializedVersion: 3
    m_Name: Mouse Vertical
    descriptiveName:
    descriptiveNegativeName:
    negativeButton:
    positiveButton:
    altNegativeButton:
    altPositiveButton:
    gravity: 0
    dead: 0
    sensitivity: 0.1
    snap: 0
    invert: 0
    type: 1
    axis: 1
    joyNum: 0
  - serializedVersion: 3
    m_Name: Mouse Wheel
    descriptiveName:
    descriptiveNegativeName:
    negativeButton:
    positiveButton:
    altNegativeButton:
    altPositiveButton:
    gravity: 0
    dead: 0
    sensitivity: 0.5
    snap: 0
    invert: 0
    type: 1
    axis: 2
    joyNum: 0
  - serializedVersion: 3
    m_Name: Joy1 Axis 1
    descriptiveName:
    descriptiveNegativeName:
    negativeButton:
    positiveButton:
    altNegativeButton:
    altPositiveButton:
    gravity: 0
    dead: 0.19
    sensitivity: 1
    snap: 0
    invert: 0
    type: 2
    axis: 0
    joyNum: 0
  - serializedVersion: 3
    m_Name: Joy1 Axis 2
    descriptiveName:
    descriptiveNegativeName:
    negativeButton:
    positiveButton:
    altNegativeButton:
    altPositiveButton:
    gravity: 0
    dead: 0.19
    sensitivity: 1
    snap: 0
    invert: 0
    type: 2
    axis: 1
    joyNum: 0
  - serializedVersion: 3
    m_Name: Joy1 Axis 3
    descriptiveName:
    descriptiveNegativeName:
    negativeButton:
    positiveButton:
    altNegativeButton:
    altPositiveButton:
    gravity: 0
    dead: 0.19
    sensitivity: 1
    snap: 0
    invert: 0
    type: 2
    axis: 2
    joyNum: 0
  - serializedVersion: 3
    m_Name: Joy1 Axis 4
    descriptiveName:
    descriptiveNegativeName:
    negativeButton:
    positiveButton:
    altNegativeButton:
    altPositiveButton:
    gravity: 0
    dead: 0.19
    sensitivity: 1
    snap: 0
    invert: 0
    type: 2
    axis: 3
    joyNum: 0
  - serializedVersion: 3
    m_Name: Joy1 Axis 5
    descriptiveName:
    descriptiveNegativeName:
    negativeButton:
    positiveButton:
    altNegativeButton:
    altPositiveButton:
    gravity: 0
    dead: 0.19
    sensitivity: 1
    snap: 0
    invert: 0
    type: 2
    axis: 4
    joyNum: 0
  - serializedVersion: 3
    m_Name: Joy1 Axis 6
    descriptiveName:
    descriptiveNegativeName:
    negativeButton:
    positiveButton:
    altNegativeButton:
    altPositiveButton:
    gravity: 0
    dead: 0.19
    sensitivity: 1
    snap: 0
    invert: 0
    type: 2
    axis: 5
    joyNum: 0
  - serializedVersion: 3
    m_Name: Joy1 Axis 7
    descriptiveName:
    descriptiveNegativeName:
    negativeButton:
    positiveButton:
    altNegativeButton:
    altPositiveButton:
    gravity: 0
    dead: 0.19
    sensitivity: 1
    snap: 0
    invert: 0
    type: 2
    axis: 6
    joyNum: 0
  - serializedVersion: 3
    m_Name: Joy1 Axis 8
    descriptiveName:
    descriptiveNegativeName:
    negativeButton:
    positiveButton:
    altNegativeButton:
    altPositiveButton:
    gravity: 0
    dead: 0.19
    sensitivity: 1
    snap: 0
    invert: 0
    type: 2
    axis: 7
    joyNum: 0
  - serializedVersion: 3
    m_Name: Joy1 Axis 9
    descriptiveName:
    descriptiveNegativeName:
    negativeButton:
    positiveButton:
    altNegativeButton:
    altPositiveButton:
    gravity: 0
    dead: 0.19
    sensitivity: 1
    snap: 0
    invert: 0
    type: 2
    axis: 8
    joyNum: 0
  - serializedVersion: 3
    m_Name: Joy1 Axis 10
    descriptiveName:
    descriptiveNegativeName:
    negativeButton:
    positiveButton:
    altNegativeButton:
    altPositiveButton:
    gravity: 0
    dead: 0.19
    sensitivity: 1
    snap: 0
    invert: 0
    type: 2
    axis: 9
    joyNum: 0
  - serializedVersion: 3
    m_Name: UI_Submit
    descriptiveName:
    descriptiveNegativeName:
    negativeButton:
    positiveButton: return
    altNegativeButton:
    altPositiveButton: joystick button 0
    gravity: 1000
    dead: 0.001
    sensitivity: 1000
    snap: 0
    invert: 0
    type: 0
    axis: 0
    joyNum: 0
  - serializedVersion: 3
    m_Name: UI_Submit
    descriptiveName:
    descriptiveNegativeName:
    negativeButton:
    positiveButton: enter
    altNegativeButton:
    altPositiveButton: space
    gravity: 1000
    dead: 0.001
    sensitivity: 1000
    snap: 0
    invert: 0
    type: 0
    axis: 0
    joyNum: 0
  - serializedVersion: 3
    m_Name: UI_Cancel
    descriptiveName:
    descriptiveNegativeName:
    negativeButton:
    positiveButton: escape
    altNegativeButton:
    altPositiveButton: joystick button 1
    gravity: 1000
    dead: 0.001
    sensitivity: 1000
    snap: 0
    invert: 0
    type: 0
    axis: 0
    joyNum: 0
  - serializedVersion: 3
    m_Name: UI_Horizontal
    descriptiveName:
    descriptiveNegativeName:
    negativeButton: a
    positiveButton: d
    altNegativeButton: left
    altPositiveButton: right
    gravity: 1000
    dead: 0.001
    sensitivity: 1000
    snap: 0
    invert: 0
    type: 0
    axis: 0
    joyNum: 0
  - serializedVersion: 3
    m_Name: UI_Vertical
    descriptiveName:
    descriptiveNegativeName:
    negativeButton: s
    positiveButton: w
    altNegativeButton: down
    altPositiveButton: up
    gravity: 1000
    dead: 0.001
    sensitivity: 1000
    snap: 0
    invert: 0
    type: 0
    axis: 0
    joyNum: 0
